[gd_scene load_steps=3 format=2]

[ext_resource path="res://assets/image/line.png" type="Texture" id=1]
[ext_resource path="res://Line.gd" type="Script" id=2]

[node name="Line" type="TextureRect" groups=[
"speed_group",
]]
modulate = Color( 1, 1, 1, 0.588235 )
anchor_left = 0.5
anchor_right = 0.5
margin_left = -1000.0
margin_right = 1000.0
margin_bottom = 2.0
texture = ExtResource( 1 )
script = ExtResource( 2 )
__meta__ = {
"_edit_use_anchors_": false
}
